<?xml version="1.0" encoding="UTF-8"?>
<svg width="100px" height="100px" viewBox="0 0 100 100" version="1.1" xmlns="http://www.w3.org/2000/svg" xmlns:xlink="http://www.w3.org/1999/xlink">
    <!-- Generator: Sketch 47.1 (45422) - http://www.bohemiancoding.com/sketch -->
    <title>icn_catalog</title>
    <desc>Created with Sketch.</desc>
    <defs>
        <linearGradient x1="-2.22044605e-14%" y1="50%" x2="100%" y2="50%" id="linearGradient-8">
            <stop stop-color="#E1A6ED" offset="0%"></stop>
            <stop stop-color="#BF6DD7" offset="100%"></stop>
        </linearGradient>
    </defs>
    <g id="icn_catalog">
      <circle fill="url(#linearGradient-8)" cx="49.8973306" cy="49.8973306" r="49.8973306"></circle>
      <path d="M88,56 L87,56 L87,55 C87,54.4571429 86.5428571,54 86,54 C85.4571429,54 85,54.4571429 85,55 L85,56 L84,56 C83.4571429,56 83,56.4571429 83,57 C83,57.5428571 83.4571429,58 84,58 L85,58 L85,59 C85,59.5428571 85.4571429,60 86,60 C86.5428571,60 87,59.5428571 87,59 L87,58 L88,58 C88.5428571,58 89,57.5428571 89,57 C89,56.4571429 88.5428571,56 88,56 Z" id="icn_catalog__el4" fill="#FFFFFF"></path>
      <path d="M66.5,24 C65.1134454,24 64,22.8865546 64,21.5 C64,20.1134454 65.1134454,19 66.5,19 C67.8865546,19 69,20.1134454 69,21.5 C69,22.8865546 67.8865546,24 66.5,24 Z M66.5,20.4705882 C65.9327731,20.4705882 65.4705882,20.9327731 65.4705882,21.5 C65.4705882,22.0672269 65.9327731,22.5294118 66.5,22.5294118 C67.0672269,22.5294118 67.5294118,22.0672269 67.5294118,21.5 C67.5294118,20.9327731 67.0672269,20.4705882 66.5,20.4705882 Z" id="icn_catalog__el3" fill="#FFFFFF"></path>
      <path d="M47,14 L46,14 L46,13 C46,12.4571429 45.5428571,12 45,12 C44.4571429,12 44,12.4571429 44,13 L44,14 L43,14 C42.4571429,14 42,14.4571429 42,15 C42,15.5428571 42.4571429,16 43,16 L44,16 L44,17 C44,17.5428571 44.4571429,18 45,18 C45.5428571,18 46,17.5428571 46,17 L46,16 L47,16 C47.5428571,16 48,15.5428571 48,15 C48,14.4571429 47.5428571,14 47,14 Z" id="icn_catalog__el2" fill="#FFFFFF"></path>
      <path d="M16,63 C14.8932039,63 14,62.1067961 14,61 C14,59.8932039 14.8932039,59 16,59 C17.1067961,59 18,59.8932039 18,61 C18,62.1067961 17.1067961,63 16,63 Z" id="icn_catalog__el1" fill="#FFFFFF"></path>
      <g transform="translate(23.000000, 53.903382)">
      <path d="M1.13478261,13.3512077 C1.13478261,7.88743961 5.56183575,3.46038647 11.0256039,3.46038647 L47.5487923,3.46038647 C53.0125604,3.46038647 57.4396135,7.88743961 57.4396135,13.3512077 C57.4396135,18.8149758 53.0125604,23.242029 47.5487923,23.242029 L11.0256039,23.242029 C5.56183575,23.242029 1.13478261,18.8149758 1.13478261,13.3512077 Z" fill="#5BBA47"></path>
      <path d="M1.13478261,11.6280193 L1.13478261,11.6280193 C1.13478261,7.11690821 4.79130435,3.46038647 9.30241546,3.46038647 L49.2719807,3.46038647 C53.7830918,3.46038647 57.4396135,7.11690821 57.4396135,11.6280193 L57.4396135,11.6280193 C57.4396135,16.1391304 53.7830918,19.7956522 49.2719807,19.7956522 L9.2884058,19.7956522 C4.79130435,19.7956522 1.13478261,16.1391304 1.13478261,11.6280193 Z" fill="#7FC344"></path>
      <path d="M45.9516908,0.0420289855 L12.0342995,0.0420289855 C5.40772947,0.0420289855 0.0140096618,5.43574879 0.0140096618,12.0623188 C0.0140096618,18.6888889 5.40772947,24.0826087 12.0342995,24.0826087 L45.9516908,24.0826087 C52.5782609,24.0826087 57.9719807,18.6888889 57.9719807,12.0623188 C57.9719807,5.43574879 52.5782609,0.0420289855 45.9516908,0.0420289855 Z M45.9516908,22.4014493 L12.0342995,22.4014493 C6.33236715,22.4014493 1.69516908,17.7642512 1.69516908,12.0623188 C1.69516908,6.36038647 6.33236715,1.72318841 12.0342995,1.72318841 L45.9516908,1.72318841 C51.6536232,1.72318841 56.2908213,6.36038647 56.2908213,12.0623188 C56.2908213,17.7642512 51.6536232,22.4014493 45.9516908,22.4014493 Z M53.6009662,9.86280193 C53.8671498,9.86280193 54.0913043,9.63864734 54.0913043,9.37246377 C54.0913043,7.20096618 52.326087,5.43574879 50.1545894,5.43574879 C49.8884058,5.43574879 49.6642512,5.65990338 49.6642512,5.92608696 C49.6642512,6.19227053 49.8884058,6.41642512 50.1545894,6.41642512 C51.7797101,6.41642512 53.110628,7.747343 53.110628,9.37246377 C53.110628,9.63864734 53.3347826,9.86280193 53.6009662,9.86280193 Z" fill="#EDF5FA"></path>
    </g>
    <g transform="translate(23.000000, 40.874396)">
      <path d="M2.4236715,30.078744 L2.4236715,30.078744 C0.37826087,25.021256 2.82995169,19.2492754 7.88743961,17.2038647 L41.7487923,3.54444444 C46.8062802,1.49903382 52.5782609,3.95072464 54.6236715,9.00821256 L54.6236715,9.00821256 C56.6690821,14.0657005 54.2173913,19.8376812 49.1599034,21.8830918 L15.2985507,35.5565217 C10.2270531,37.5879227 4.45507246,35.1502415 2.4236715,30.078744 Z" fill="#F05225"></path>
      <path d="M1.76521739,28.4816425 L1.76521739,28.4816425 C0.084057971,24.3067633 2.10144928,19.5434783 6.2763285,17.8623188 L43.3318841,2.9 C47.5067633,1.21884058 52.2700483,3.23623188 53.9512077,7.41111111 L53.9512077,7.41111111 C55.6323671,11.5859903 53.6149758,16.3492754 49.4400966,18.0304348 L12.3985507,32.9927536 C8.20966184,34.6879227 3.46038647,32.6705314 1.76521739,28.4816425 Z" fill="#F16723"></path>
      <path d="M54.6516908,7.59323671 C52.1719807,1.44299517 45.1531401,-1.52705314 39.0028986,0.952657005 L7.55120773,13.6594203 C4.56714976,14.8642512 2.24154589,17.1478261 0.980676329,20.1038647 C-0.280193237,23.0599034 -0.30821256,26.3241546 0.896618357,29.3082126 C2.10144928,32.2922705 4.38502415,34.6178744 7.35507246,35.878744 C8.86811594,36.5231884 10.4652174,36.8454106 12.0483092,36.8454106 C13.5753623,36.8454106 15.1024155,36.5512077 16.5594203,35.9628019 L23.6202899,33.1188406 C23.6669887,33.100161 31.7972625,29.8172303 48.0111111,23.2700483 C54.147343,20.7623188 57.131401,13.7434783 54.6516908,7.59323671 Z M47.3806763,21.6729469 L15.9289855,34.3937198 C13.3652174,35.4304348 10.5492754,35.4024155 7.99951691,34.3236715 C5.44975845,33.2449275 3.4884058,31.2415459 2.45169082,28.6777778 C1.41497585,26.1140097 1.44299517,23.2980676 2.52173913,20.7623188 C3.60048309,18.22657 5.6178744,16.2512077 8.18164251,15.2144928 L39.6333333,2.50772947 C40.8942029,2.00338164 42.2111111,1.75120773 43.5,1.75120773 C47.5908213,1.75120773 51.4714976,4.20289855 53.0966184,8.2236715 C55.226087,13.505314 52.6623188,19.5434783 47.3806763,21.6729469 Z M49.5661836,7.24299517 C49.6222222,7.24299517 49.6922705,7.22898551 49.7623188,7.20096618 C50.0144928,7.08888889 50.12657,6.80869565 50.0285024,6.55652174 C49.2019324,4.5531401 46.9043478,3.57246377 44.9009662,4.38502415 C44.6487923,4.49710145 44.536715,4.77729469 44.6347826,5.0294686 C44.7468599,5.28164251 45.0270531,5.39371981 45.2792271,5.29565217 C46.7782609,4.69323671 48.5014493,5.42173913 49.1178744,6.93478261 C49.1879227,7.13091787 49.3700483,7.24299517 49.5661836,7.24299517 Z" fill="#EDF5FA"></path>
    </g>
    <g transform="translate(23.000000, 29.526570)">
      <path d="M5.25362319,44.7188406 L5.25362319,44.7188406 C1.38695652,40.8521739 1.38695652,34.6038647 5.25362319,30.7371981 L31.07343,4.9173913 C34.9400966,1.05072464 41.1884058,1.05072464 45.0550725,4.9173913 L45.0550725,4.9173913 C48.9217391,8.78405797 48.9217391,15.0323671 45.0550725,18.8990338 L19.221256,44.7188406 C15.368599,48.5855072 9.10628019,48.5855072 5.25362319,44.7188406 Z" fill="#FAAF1A"></path>
      <path d="M4.02077295,43.5 L4.02077295,43.5 C0.826570048,40.3057971 0.826570048,35.1502415 4.02077295,31.9560386 L32.2782609,3.69855072 C35.4724638,0.504347826 40.6280193,0.504347826 43.8222222,3.69855072 L43.8222222,3.69855072 C47.0164251,6.89275362 47.0164251,12.0483092 43.8222222,15.2425121 L15.5647343,43.5 C12.3845411,46.6942029 7.21497585,46.6942029 4.02077295,43.5 Z" fill="#FBD20A"></path>
      <path d="M48.0531401,12.1043478 C48.0531401,8.89613527 46.8062802,5.87004831 44.5227053,3.60048309 C42.2531401,1.33091787 39.2270531,0.0700483092 36.0188406,0.0700483092 C32.810628,0.0700483092 29.7845411,1.31690821 27.5149758,3.60048309 L3.54444444,27.5990338 C1.27487923,29.868599 0.0140096618,32.894686 0.0140096618,36.1028986 C0.0140096618,39.3111111 1.26086957,42.3371981 3.54444444,44.6067633 C5.81400966,46.8763285 8.84009662,48.1371981 12.0483092,48.1371981 C15.2565217,48.1371981 18.2826087,46.8903382 20.5521739,44.6067633 L25.9879227,39.1710145 C25.9879227,39.1710145 32.1708535,32.9880837 44.536715,20.6222222 C46.8062802,18.3386473 48.0531401,15.32657 48.0531401,12.1043478 Z M19.347343,43.415942 C17.3859903,45.3772947 14.7942029,46.442029 12.0342995,46.442029 C9.27439614,46.442029 6.66859903,45.363285 4.72125604,43.415942 C2.75990338,41.4545894 1.69516908,38.8628019 1.69516908,36.1028986 C1.69516908,33.3429952 2.77391304,30.7512077 4.72125604,28.7898551 L28.7057971,4.80531401 C30.6671498,2.84396135 33.2589372,1.77922705 36.0188406,1.77922705 C38.778744,1.77922705 41.3705314,2.85797101 43.3318841,4.80531401 C45.2932367,6.76666667 46.357971,9.35845411 46.357971,12.1183575 C46.357971,14.8782609 45.2792271,17.484058 43.3318841,19.431401 L19.347343,43.415942 Z M39.8714976,4.46908213 C39.1289855,3.72657005 38.1342995,3.32028986 37.0835749,3.32028986 C36.0328502,3.32028986 35.0381643,3.72657005 34.2956522,4.46908213 C34.0995169,4.66521739 34.0995169,4.97342995 34.2956522,5.15555556 C34.4917874,5.35169082 34.8,5.35169082 34.9821256,5.15555556 C35.5425121,4.59516908 36.2850242,4.28695652 37.0695652,4.28695652 C37.8541063,4.28695652 38.5966184,4.59516908 39.1570048,5.15555556 C39.2550725,5.25362319 39.3811594,5.29565217 39.5072464,5.29565217 C39.6333333,5.29565217 39.7594203,5.25362319 39.8574879,5.15555556 C40.0536232,4.97342995 40.0536232,4.66521739 39.8714976,4.46908213 Z" fill="#EDF5FA"></path>
    </g>
    <g transform="translate(23.000000, 22.381643)">
      <path d="M9.06425121,54.0072464 L9.06425121,54.0072464 C4.02077295,51.9198068 1.62512077,46.1338164 3.71256039,41.0903382 L17.6942029,7.35507246 C19.7816425,2.3115942 25.5676329,-0.084057971 30.6111111,2.00338164 L30.6111111,2.00338164 C35.6545894,4.09082126 38.0502415,9.87681159 35.9628019,14.9202899 L21.9811594,48.6555556 C19.8937198,53.6990338 14.1077295,56.094686 9.06425121,54.0072464 Z" fill="#EE3C7A"></path>
      <path d="M7.46714976,53.3487923 L7.46714976,53.3487923 C3.30628019,51.6256039 1.33091787,46.8483092 3.05410628,42.6874396 L18.352657,5.75797101 C20.0758454,1.59710145 24.8531401,-0.37826087 29.0140097,1.34492754 L29.0140097,1.34492754 C33.1748792,3.06811594 35.1502415,7.84541063 33.4270531,12.0062802 L18.1425121,48.9357488 C16.4193237,53.0966184 11.642029,55.0719807 7.46714976,53.3487923 Z" fill="#F05F88"></path>
      <path d="M29.6304348,0.99468599 C26.6603865,-0.238164251 23.3961353,-0.238164251 20.426087,0.99468599 C17.4560386,2.22753623 15.1444444,4.53913043 13.9115942,7.49516908 L0.938647343,38.8347826 C-1.59710145,44.9570048 1.31690821,52.0038647 7.43913043,54.5396135 C8.92415459,55.1560386 10.4792271,55.4642512 12.0483092,55.4642512 C13.6033816,55.4642512 15.1584541,55.1560386 16.6434783,54.5396135 C19.6135266,53.3067633 21.9251208,50.9951691 23.157971,48.0251208 L26.0719807,40.9782609 C26.1,40.931562 29.457649,32.8386473 36.1449275,16.6995169 C38.6806763,10.5772947 35.752657,3.53043478 29.6304348,0.99468599 Z M34.5898551,16.0550725 L21.5888889,47.394686 C20.5241546,49.9444444 18.5347826,51.9338164 15.9850242,52.9985507 C13.4352657,54.0492754 10.6193237,54.0492754 8.06956522,52.9985507 C2.80193237,50.8130435 0.280193237,44.7468599 2.46570048,39.4792271 L15.452657,8.13961353 C17.6381643,2.87198068 23.7043478,0.350241546 28.9719807,2.53574879 C34.2536232,4.7352657 36.7753623,10.7874396 34.5898551,16.0550725 Z M20.9864734,6.37439614 C21.1826087,6.37439614 21.3647343,6.26231884 21.4487923,6.06618357 C22.0652174,4.56714976 23.8024155,3.83864734 25.3014493,4.46908213 C25.5536232,4.56714976 25.8478261,4.45507246 25.9458937,4.20289855 C26.0439614,3.95072464 25.9318841,3.65652174 25.6797101,3.55845411 C23.6763285,2.73188406 21.378744,3.68454106 20.5381643,5.68792271 C20.4400966,5.94009662 20.5521739,6.23429952 20.8043478,6.33236715 C20.8603865,6.36038647 20.9304348,6.37439614 20.9864734,6.37439614 Z" fill="#EDF5FA"></path>
    </g>
    <g transform="translate(23.000000, 20.000000)">
      <path d="M12.1444873,57.9667767 C6.68071914,57.9667767 3.44637681,52.4381643 3.44637681,46.9743961 L3.44637681,10.4652174 C3.44637681,5.00144928 6.78237258,0.0274049552 12.2461407,0.0274049552 C18.7782553,0.0274049552 24.0735199,6.49837183 24.0431754,11.7280153 L24,45.9884058 C24,52.8662903 18.3159082,57.9667767 12.1444873,57.9667767 Z" fill="#3769A5"></path>
      <path d="M11.6702816,57.9490457 C6.06206768,57.9682948 0,53.0637944 0,45.6975845 L0,12.7280193 C0,6.1041461 4.6689751,0.042140917 12.1329106,0.042140917 C17.5957655,0.042140917 19.7816425,4.21690821 19.7816425,8.72801932 L19.7816425,48.6975845 C19.7816425,53.2086957 17.1331365,57.9490457 11.6702816,57.9490457 Z" fill="#4E9BD4"></path>
      <path d="M3.44637681,46.8342995 C3.44637681,52.2980676 6.69853488,56.2979714 12.162303,56.2979714 C17.6260711,56.2979714 22.3999939,51.8690011 22.3999939,45.8342995 L22.3999939,39.1000061 L3.44637681,39.1000061 L3.44637681,46.8342995 Z" fill="#E7D0A9"></path>
      <path d="M1.69999695,46 C1.69999695,51.3938984 6.06328435,56.2866477 11.9913965,56.2866477 C16.5025076,56.2866477 19.7816425,53.068599 19.7816425,48.5574879 L19.7816425,39.1000061 L1.69999695,39.1000061 L1.69999695,46 Z" fill="#FFE4B8"></path>
      <path d="M22.3899994,39.1149758 L1.70651905,39.1149758 L1.70917874,45.9516908 C1.70917874,51.6536232 6.34637681,56.2908213 12.0483092,56.2908213 C17.7502415,56.2908213 22.3899994,51.6536232 22.3899994,45.9516908 L22.3899994,39.1149758 Z M1.70586502,37.4338164 L22.3899994,37.4338164 L22.3899994,15.1499939 L24.0500031,15.1499939 L24.068599,45.9516908 C24.068599,52.5782609 18.6748792,57.9719807 12.0483092,57.9719807 C5.42173913,57.9719807 0.0280193237,52.5782609 0.0280193237,45.9516908 L0.00999450684,22.3500061 L1.69999695,22.3500061 L1.70586502,37.4338164 Z M1.69999695,22.3500061 L0.00999450684,22.3500061 L0.0140096618,12.0483092 C0.0140096618,5.42173913 5.40772947,0.0280193237 12.0342995,0.0280193237 C18.6608696,0.0280193237 24.0545894,5.42173913 24.0545894,12.0483092 L24.0500031,15.1499939 L22.3699951,15.1499939 L22.37343,12.0483092 C22.37343,6.34637681 17.7362319,1.70917874 12.0342995,1.70917874 C6.33236715,1.70917874 1.69516908,6.34637681 1.69516908,12.0483092 L1.69999695,22.3500061 Z M8.5178744,46.6521739 C8.5178744,44.7188406 10.1009662,43.1357488 12.0342995,43.1357488 C13.9676329,43.1357488 15.5507246,44.7188406 15.5507246,46.6521739 C15.5507246,48.5855072 13.9676329,50.168599 12.0342995,50.168599 C10.1009662,50.168599 8.5178744,48.5855072 8.5178744,46.6521739 Z M13.8695652,46.6521739 C13.8695652,45.6434783 13.0429952,44.8169082 12.0342995,44.8169082 C11.0256039,44.8169082 10.1990338,45.6434783 10.1990338,46.6521739 C10.1990338,47.6608696 11.0256039,48.4874396 12.0342995,48.4874396 C13.0429952,48.4874396 13.8695652,47.6608696 13.8695652,46.6521739 Z M5.91207729,8.33574879 C5.64589372,8.33574879 5.42173913,8.1115942 5.42173913,7.84541063 C5.42173913,5.67391304 7.18695652,3.90869565 9.35845411,3.90869565 C9.62463768,3.90869565 9.84879227,4.13285024 9.84879227,4.39903382 C9.84879227,4.66521739 9.62463768,4.88937198 9.35845411,4.88937198 C7.73333333,4.88937198 6.40241546,6.22028986 6.40241546,7.84541063 C6.40241546,8.1115942 6.17826087,8.33574879 5.91207729,8.33574879 Z M5.91207729,10.9275362 C5.64589372,10.9275362 5.42173913,10.7033816 5.42173913,10.4371981 L5.42173913,9.66666667 C5.42173913,9.40048309 5.64589372,9.1763285 5.91207729,9.1763285 C6.17826087,9.1763285 6.40241546,9.40048309 6.40241546,9.66666667 L6.40241546,10.4371981 C6.40241546,10.7033816 6.17826087,10.9275362 5.91207729,10.9275362 Z M5.91207729,35.2062802 C5.64589372,35.2062802 5.42173913,34.9821256 5.42173913,34.715942 L5.42173913,30.1207729 C5.42173913,29.8545894 5.64589372,29.6304348 5.91207729,29.6304348 C6.17826087,29.6304348 6.40241546,29.8545894 6.40241546,30.1207729 L6.40241546,34.715942 C6.40241546,34.9821256 6.17826087,35.2062802 5.91207729,35.2062802 Z" fill-opacity="0.9" fill="#FFFFFF"></path>
    </g>
  </g>
</svg>
