<svg width="38" height="38" viewBox="0 0 38 38" xmlns="http://www.w3.org/2000/svg">
  <g>
    <path d="M37.1501455,9.1356486 C38.2833072,14.1432011 38.2833072,19.2211619 37.1500114,24.2285847 L37.1387536,24.2724117 C36.2220385,27.8577929 32.0890476,31.7054872 28.2935255,32.5059124 L28.2507722,32.5144705 C25.1819212,33.0808493 22.0902863,33.3636499 19.0001257,33.3636499 C18.0907819,33.3636499 17.18117,33.3361607 16.2719602,33.2870176 L12.0804012,37.5023137 C11.0427978,38.5478067 9.21807914,37.836332 9.21807914,36.3875792 L9.21807914,32.3850643 C5.56421911,31.3756181 1.73907815,27.7047874 0.860157487,24.272282 L0.849971762,24.2284551 C-0.283323921,19.2211619 -0.283323921,14.1429417 0.849971762,9.1356486 L0.860157487,9.09182166 C1.77807874,5.50644054 5.91120382,1.65874608 9.70538554,0.858320869 L9.74947902,0.849762944 C15.8871811,-0.283254315 22.111864,-0.283254315 28.2509062,0.849762944 L28.2936595,0.858320869 C32.0891816,1.65874608 36.2221725,5.5061812 37.1388876,9.09182166 L37.1501455,9.1356486 Z" fill="#665CAC" fill-rule="nonzero"/>
    <path d="M24.423755,26.5630827 C24.0404502,26.4504034 23.6752384,26.3748082 23.335759,26.2387892 C19.8202103,24.8276394 16.5849031,23.0071356 14.0222557,20.2166041 C12.5648932,18.6297575 11.4242263,16.8381691 10.4600672,14.9422 C10.0027819,14.0430993 9.61746669,13.1088593 9.22464625,12.1804542 C8.86653767,11.3339977 9.39405088,10.4595335 9.94944082,9.82157918 C10.470655,9.2229135 11.1414384,8.76493489 11.8678413,8.42715624 C12.4347572,8.16367591 12.9938998,8.31564389 13.4080298,8.78049475 C14.3030332,9.78566183 15.1253963,10.8421764 15.7909528,12.0073507 C16.2003921,12.724012 16.0880811,13.6000322 15.3459976,14.0877042 C15.1656031,14.2062185 15.0012913,14.3454793 14.8333609,14.4792941 C14.6859359,14.5966414 14.5473565,14.7151557 14.4463034,14.8739959 C14.2617542,15.1645763 14.2529087,15.5075416 14.3716528,15.8235365 C15.2866256,18.2561912 16.8288244,20.148011 19.3598425,21.1670523 C19.764859,21.3300418 20.1714838,21.5197425 20.6381507,21.467228 C21.4195029,21.3789257 21.6725376,20.5495851 22.2201543,20.1163726 C22.7553068,19.6930147 23.4393585,19.6874391 24.01579,20.0403886 C24.5924895,20.3935975 25.1513641,20.7724801 25.707022,21.1556417 C26.2524943,21.5316717 26.7954201,21.8992735 27.2984073,22.3280773 C27.7822291,22.740284 27.9488191,23.2809892 27.676351,23.8402365 C27.1777867,24.8647237 26.4520541,25.7167559 25.405471,26.2608323 C25.109951,26.4140969 24.7569353,26.4637589 24.423755,26.5630827 C24.0404502,26.4504034 24.7569353,26.4637589 24.423755,26.5630827 Z M19.0093732,7.25575798 C23.6075569,7.38049622 27.3844497,10.3328503 28.1938127,14.7311045 C28.3317221,15.4805712 28.3807742,16.246635 28.4421567,17.0073826 C28.468023,17.3272674 28.2806594,17.6312034 27.9238911,17.6354824 C27.5553286,17.6397613 27.3895427,17.3412713 27.3654185,17.0216458 C27.3181085,16.3886188 27.285273,15.7526094 27.1950757,15.1250284 C26.7191612,11.8109075 23.9877792,9.06913019 20.5782426,8.48083777 C20.0650698,8.39227621 19.540237,8.36906609 19.0203631,8.31629222 C18.6918735,8.28296817 18.2616607,8.26377769 18.1888864,7.8685572 C18.1279061,7.53726182 18.416859,7.27352216 18.7429362,7.25653599 C18.8312571,7.25147902 18.9203821,7.25549866 19.0093732,7.25575798 C23.607825,7.38049622 18.9203821,7.25549866 19.0093732,7.25575798 Z M25.9974492,16.020239 C25.9898099,16.0758656 25.9859233,16.2064387 25.9521494,16.3293616 C25.8301889,16.7759297 25.1300545,16.8318155 24.9690932,16.3812278 C24.9212471,16.2475427 24.9141439,16.0953154 24.9138759,15.9513867 C24.9122676,15.009237 24.7006458,14.0678654 24.2094527,13.2479904 C23.7045893,12.4052942 22.9331549,11.6971908 22.0286359,11.268387 C21.4815553,11.0093153 20.8901133,10.848141 20.2904959,10.7523182 C20.0284816,10.7103066 19.7636528,10.6850218 19.5002982,10.6494935 C19.1811903,10.6065742 19.0107134,10.4098716 19.025992,10.1056763 C19.0400644,9.82067151 19.2554388,9.61541102 19.5765572,9.63317518 C20.6317176,9.69100599 21.651094,9.91195602 22.5893867,10.3924964 C24.4970654,11.3700447 25.5869377,12.912805 25.9051074,14.9730604 C25.9194479,15.0665492 25.9424999,15.1588711 25.9498712,15.2524896 C25.9678302,15.4835535 25.9792221,15.7150064 25.9974492,16.020239 C25.9898099,16.0756062 25.9792221,15.7150064 25.9974492,16.020239 Z M23.1374054,15.912487 C22.7527604,15.9192296 22.5469015,15.7130615 22.5070968,15.3720411 C22.4796222,15.1342346 22.4576424,14.8930567 22.3989405,14.6614741 C22.283413,14.2054405 22.0329246,13.7829903 21.6364855,13.5035611 C21.4493899,13.3716913 21.237232,13.2756091 21.0151565,13.2133697 C20.7330387,13.1344034 20.4397971,13.1561872 20.1584836,13.0895391 C19.8527779,13.0170561 19.6836413,12.7774342 19.7317554,12.5000797 C19.7754468,12.2474913 20.0292857,12.0503997 20.31462,12.0704978 C22.0973895,12.1949767 23.371543,13.0866865 23.5534118,15.1172484 C23.566412,15.2605288 23.5814225,15.4118485 23.548587,15.5491642 C23.4920294,15.7834698 23.312439,15.9010764 23.1374054,15.912487 C22.7526263,15.9191 23.312439,15.9010764 23.1374054,15.912487 Z" fill="#FFF"/>
  </g>
</svg>
