<svg width="35" height="28" viewBox="0 0 35 28" xmlns="http://www.w3.org/2000/svg">
  <defs>
    <linearGradient x1=".5%" y1="101.5%" x2="101.5%" y2="-.5%" id="linearGradient-9">
      <stop stop-color="#FD236F" offset="0%"/>
      <stop stop-color="#BF6DD7" offset="100%"/>
    </linearGradient>
  </defs>
  <g style="transform: translateY(-4px)" fill="url(#linearGradient-9)">
    <path d="M35,13.0284091 L35,28.8181818 C35,29.6931862 34.6940135,30.4422317 34.0820312,31.0653409 C33.470049,31.6884501 32.7343793,32 31.875,32 L3.125,32 C2.2656207,32 1.52995098,31.6884501 0.91796875,31.0653409 C0.305986523,30.4422317 0,29.6931862 0,28.8181818 L0,13.0284091 C0.572919531,13.6780336 1.23046504,14.2547323 1.97265625,14.7585227 C6.68622148,18.0199027 9.92186621,20.3068116 11.6796875,21.6193182 C12.4218787,22.1761391 13.0240862,22.6103204 13.4863281,22.921875 C13.94857,23.2334296 14.5637982,23.5516082 15.3320312,23.8764205 C16.1002643,24.2012327 16.8164029,24.3636364 17.4804687,24.3636364 L17.5195312,24.3636364 C18.1835971,24.3636364 18.8997357,24.2012327 19.6679687,23.8764205 C20.4362018,23.5516082 21.05143,23.2334296 21.5136719,22.921875 C21.9759138,22.6103204 22.5781213,22.1761391 23.3203125,21.6193182 C25.5338652,19.9886282 28.7760203,17.7017193 33.046875,14.7585227 C33.7890662,14.2414747 34.4401014,13.6647759 35,13.0284091 Z M35,7.18181818 C35,8.2291719 34.6809928,9.23010886 34.0429688,10.1846591 C33.4049447,11.1392093 32.6106818,11.9545421 31.6601562,12.6306818 C26.7642984,16.0909264 23.7174539,18.2452609 22.5195312,19.09375 C22.3893223,19.1865535 22.1126323,19.3887295 21.6894531,19.7002841 C21.2662739,20.0118387 20.9147149,20.2637301 20.6347656,20.4559659 C20.3548163,20.6482017 20.016278,20.8636352 19.6191406,21.1022727 C19.2220032,21.3409103 18.847658,21.5198858 18.4960938,21.6392045 C18.1445295,21.7585233 17.8190119,21.8181818 17.5195312,21.8181818 L17.4804687,21.8181818 C17.1809881,21.8181818 16.8554705,21.7585233 16.5039062,21.6392045 C16.152342,21.5198858 15.7779968,21.3409103 15.3808594,21.1022727 C14.983722,20.8636352 14.6451837,20.6482017 14.3652344,20.4559659 C14.0852851,20.2637301 13.7337261,20.0118387 13.3105469,19.7002841 C12.8873677,19.3887295 12.6106777,19.1865535 12.4804687,19.09375 C11.295567,18.2452609 9.58985488,17.0355192 7.36328125,15.4644886 C5.13670762,13.8934581 3.80208555,12.9488652 3.359375,12.6306818 C2.5520793,12.0738609 1.79036816,11.3082435 1.07421875,10.3338068 C0.358069336,9.35937013 0,8.45454963 0,7.61931818 C0,6.5852221 0.27017959,5.7234883 0.810546875,5.03409091 C1.35091416,4.34469352 2.12239082,4 3.125,4 L31.875,4 C32.7213584,4 33.4537729,4.31154991 34.0722656,4.93465909 C34.6907583,5.55776827 35,6.30681381 35,7.18181818 Z"/>
  </g>
</svg>
