<svg width="34" height="34" viewBox="0 0 34 34" xmlns="http://www.w3.org/2000/svg">
  <g>
    <path d="M16.1690229,0.019670838 C26.1178043,-0.450425595 34.3003678,7.5674517 33.9915349,17.4018461 C33.7027727,26.5763793 25.9879832,33.863622 16.7354099,33.7233411 C14.1136947,33.6836389 11.6364186,33.0543886 9.43085059,31.9644785 L0.846293832,33.9818078 C0.375503491,34.0925134 -0.0518971047,33.6808769 0.0456718153,33.2106656 L1.85052281,24.5206135 C0.674823126,22.236762 0.00843088394,19.6524399 7.7777835e-05,16.9144878 C-0.0271858324,7.92511627 7.11646012,0.446842922 16.1690229,0.019670838 Z" fill="#00CC69" fill-rule="nonzero"/><path d="M25.2504733,20.5192126 L21.9574933,19.5814364 C21.5248721,19.4584173 21.0584903,19.5802856 20.7430445,19.8990536 L19.9376659,20.7126599 C19.5982049,21.0560547 19.0830967,21.166185 18.6336532,20.9858567 C17.0759149,20.3605191 13.799061,17.470433 12.9627063,16.0252748 C12.7209303,15.6082297 12.7609556,15.0871534 13.0574908,14.7062429 L13.7603119,13.8041411 C14.0357324,13.4508495 14.09374,12.9759198 13.911712,12.5673905 L12.5263725,9.4593453 C12.1945686,8.71501637 11.2355856,8.49820812 10.6089866,9.02388756 C9.69002892,9.79502984 8.59960053,10.9664158 8.46722699,12.2645034 C8.23345602,14.5530732 9.22306707,17.4377506 12.9642145,20.9017341 C17.2865989,24.9039406 20.7481492,25.432267 23.0022118,24.8908218 C24.280585,24.583907 25.3022163,23.3527951 25.9465655,22.3445907 C26.3863798,21.6567654 26.0387978,20.7439613 25.2504733,20.5192126 Z" fill="#FFF"/>
  </g>
</svg>
